<?xml version="1.0" standalone="no"?>
<!DOCTYPE svg PUBLIC "-//W3C//DTD SVG 20010904//EN"
 "http://www.w3.org/TR/2001/REC-SVG-20010904/DTD/svg10.dtd">
<svg version="1.0" xmlns="http://www.w3.org/2000/svg"
 width="1080.000000pt" height="1080.000000pt" viewBox="0 0 1080.000000 1080.000000"
 preserveAspectRatio="xMidYMid meet">
<g transform="translate(0.000000,1080.000000) scale(0.100000,-0.100000)"
fill="#000000" stroke="none">
<path d="M0 5400 l0 -5400 5400 0 5400 0 0 5400 0 5400 -5400 0 -5400 0 0
-5400z m3752 2753 l1648 -1648 1650 1650 1650 1650 552 -553 553 -552 -1650
-1650 -1650 -1650 1650 -1650 1650 -1650 -553 -552 -552 -553 -1650 1650
-1650 1650 -1650 -1650 -1650 -1650 -552 553 -553 552 1650 1650 1650 1650
-1650 1650 -1650 1650 550 550 c302 302 552 550 555 550 3 0 746 -741 1652
-1647z"/>
</g>
</svg>
